Project 1
…
# Rank of motality rate in heart disease and cancer by region
USRegionalMortality %>% 
  filter(Cause %in% c('Heart disease', 'Cancer')) %>% 
  group_by(Region) %>% 
  arrange(desc(Rate))

## # A tibble: 80 x 6
## # Groups:   Region [10]
##    Region        Status Sex   Cause          Rate    SE
##    <fct>         <fct>  <fct> <fct>         <dbl> <dbl>
##  1 HHS Region 04 Rural  Male  Heart disease  276.   1.3
##  2 HHS Region 06 Rural  Male  Heart disease  266.   1.6
##  3 HHS Region 02 Rural  Male  Heart disease  249.   3.3
##  4 HHS Region 03 Rural  Male  Heart disease  246    2  
##  5 HHS Region 04 Rural  Male  Cancer         245.   1.2
##  6 HHS Region 07 Rural  Male  Heart disease  238.   1.7
##  7 HHS Region 05 Rural  Male  Heart disease  229    1.2
##  8 HHS Region 02 Urban  Male  Heart disease  227.   0.8
##  9 HHS Region 03 Rural  Male  Cancer         225.   1.9
## 10 HHS Region 06 Rural  Male  Cancer         224.   1.4
## # ... with 70 more rows
…
